[
  {
    "id": "5e2e4bccca2bf0f0e31f788b",
    "correlationId": {
      "correlation": "COR_ID_1"
    },
    "code": "excepteur",
    "description": "aliqua est veniam",
    "shortDescription": "esse in"
  },
  {
    "id": "5e2e4bcc82a3de9799a4e1e8",
    "correlationId": {
      "correlation": "COR_ID_2"
    },
    "code": "dolore",
    "description": "dolor nisi esse",
    "shortDescription": "excepteur eiusmod"
  },
  {
    "id": "5e2e4bccce2262deac61c474",
    "correlationId": {
      "correlation": "COR_ID_3"
    },
    "code": "commodo",
    "description": "ipsum elit exercitation",
    "shortDescription": "minim voluptate"
  },
  {
    "id": "5e2e4bcc841da0c08113725b",
    "correlationId": {
      "correlation": "COR_ID_4"
    },
    "code": "non",
    "description": "reprehenderit veniam esse",
    "shortDescription": "laborum ad"
  },
  {
    "id": "5e2e4bccbbeef0438d5b747f",
    "correlationId": {
      "correlation": "COR_ID_5"
    },
    "code": "exercitation",
    "description": "proident pariatur do",
    "shortDescription": "ullamco duis"
  },
  {
    "id": "5e2e4bcca24d5215cbc697a4",
    "correlationId": {
      "correlation": "COR_ID_6"
    },
    "code": "esse",
    "description": "anim eu ullamco",
    "shortDescription": "laborum in"
  },
  {
    "id": "5e2e4bcc21f39bf27fe9a6cb",
    "correlationId": {
      "correlation": "COR_ID_7"
    },
    "code": "nulla",
    "description": "aute quis consequat",
    "shortDescription": "ea ullamco"
  },
  {
    "id": "5e2e4bcc7e676170836e6d41",
    "correlationId": {
      "correlation": "COR_ID_8"
    },
    "code": "aliqua",
    "description": "nisi sunt culpa",
    "shortDescription": "magna est"
  },
  {
    "id": "5e2e4bccbc1e8f82a6c75c5e",
    "correlationId": {
      "correlation": "COR_ID_9"
    },
    "code": "sint",
    "description": "ad occaecat commodo",
    "shortDescription": "eiusmod ad"
  },
  {
    "id": "5e2e4bcc61494ef0cf5902d1",
    "correlationId": {
      "correlation": "COR_ID_10"
    },
    "code": "occaecat",
    "description": "tempor occaecat consequat",
    "shortDescription": "irure aute"
  },
  {
    "id": "5e2e4bcc07d786727f56b663",
    "correlationId": {
      "correlation": "COR_ID_11"
    },
    "code": "proident",
    "description": "id ipsum laboris",
    "shortDescription": "Lorem in"
  },
  {
    "id": "5e2e4bcc69fa6ce389c41152",
    "correlationId": {
      "correlation": "COR_ID_12"
    },
    "code": "Lorem",
    "description": "sint voluptate in",
    "shortDescription": "commodo dolor"
  },
  {
    "id": "5e2e4bccce56b4f50c65bf5a",
    "correlationId": {
      "correlation": "COR_ID_13"
    },
    "code": "aliqua",
    "description": "magna laboris aliqua",
    "shortDescription": "sunt incididunt"
  },
  {
    "id": "5e2e4bcc3b5f095449e29c55",
    "correlationId": {
      "correlation": "COR_ID_14"
    },
    "code": "culpa",
    "description": "tempor eiusmod enim",
    "shortDescription": "ut mollit"
  },
  {
    "id": "5e2e4bcc47d70cd81c5df7de",
    "correlationId": {
      "correlation": "COR_ID_15"
    },
    "code": "fugiat",
    "description": "irure proident incididunt",
    "shortDescription": "mollit do"
  },
  {
    "id": "5e2e4bcc07f646937188a3cb",
    "correlationId": {
      "correlation": "COR_ID_16"
    },
    "code": "anim",
    "description": "fugiat officia et",
    "shortDescription": "enim incididunt"
  }
]
